<?xml version="1.0" encoding="utf-8" standalone="no"?>
<!DOCTYPE svg PUBLIC "-//W3C//DTD SVG 1.1//EN"
  "http://www.w3.org/Graphics/SVG/1.1/DTD/svg11.dtd">
<!-- Created with matplotlib (http://matplotlib.org/) -->
<svg height="345pt" version="1.1" viewBox="0 0 460 345" width="460pt" xmlns="http://www.w3.org/2000/svg" xmlns:xlink="http://www.w3.org/1999/xlink">
 <defs>
  <style type="text/css">
*{stroke-linecap:butt;stroke-linejoin:round;}
  </style>
 </defs>
 <g id="figure_1">
  <g id="patch_1">
   <path d="M 0 345.6 
L 460.8 345.6 
L 460.8 0 
L 0 0 
z
" style="fill:#ffffff;"/>
  </g>
  <g id="axes_1">
   <g id="patch_2">
    <path d="M 57.71 296.44 
L 447.48 296.44 
L 447.48 26.88 
L 57.71 26.88 
z
" style="fill:#ffffff;"/>
   </g>
   <g id="matplotlib.axis_1">
    <g id="xtick_1">
     <g id="line2d_1">
      <defs>
       <path d="M 0 0 
L 0 3.5 
" id="mda60f0293b" style="stroke:#000000;stroke-width:0.8;"/>
      </defs>
      <g>
       <use style="stroke:#000000;stroke-width:0.8;" x="57.71" xlink:href="#mda60f0293b" y="296.44"/>
      </g>
     </g>
     <g id="text_1">
      <!-- 0 -->
      <defs>
       <path d="M 31.78125 66.40625 
Q 24.171875 66.40625 20.328125 58.90625 
Q 16.5 51.421875 16.5 36.375 
Q 16.5 21.390625 20.328125 13.890625 
Q 24.171875 6.390625 31.78125 6.390625 
Q 39.453125 6.390625 43.28125 13.890625 
Q 47.125 21.390625 47.125 36.375 
Q 47.125 51.421875 43.28125 58.90625 
Q 39.453125 66.40625 31.78125 66.40625 
z
M 31.78125 74.21875 
Q 44.046875 74.21875 50.515625 64.515625 
Q 56.984375 54.828125 56.984375 36.375 
Q 56.984375 17.96875 50.515625 8.265625 
Q 44.046875 -1.421875 31.78125 -1.421875 
Q 19.53125 -1.421875 13.0625 8.265625 
Q 6.59375 17.96875 6.59375 36.375 
Q 6.59375 54.828125 13.0625 64.515625 
Q 19.53125 74.21875 31.78125 74.21875 
z
" id="DejaVuSans-30"/>
      </defs>
      <g transform="translate(53.25625 314.077812)scale(0.14 -0.14)">
       <use xlink:href="#DejaVuSans-30"/>
      </g>
     </g>
    </g>
    <g id="xtick_2">
     <g id="line2d_2">
      <g>
       <use style="stroke:#000000;stroke-width:0.8;" x="131.107889" xlink:href="#mda60f0293b" y="296.44"/>
      </g>
     </g>
     <g id="text_2">
      <!-- 2 -->
      <defs>
       <path d="M 19.1875 8.296875 
L 53.609375 8.296875 
L 53.609375 0 
L 7.328125 0 
L 7.328125 8.296875 
Q 12.9375 14.109375 22.625 23.890625 
Q 32.328125 33.6875 34.8125 36.53125 
Q 39.546875 41.84375 41.421875 45.53125 
Q 43.3125 49.21875 43.3125 52.78125 
Q 43.3125 58.59375 39.234375 62.25 
Q 35.15625 65.921875 28.609375 65.921875 
Q 23.96875 65.921875 18.8125 64.3125 
Q 13.671875 62.703125 7.8125 59.421875 
L 7.8125 69.390625 
Q 13.765625 71.78125 18.9375 73 
Q 24.125 74.21875 28.421875 74.21875 
Q 39.75 74.21875 46.484375 68.546875 
Q 53.21875 62.890625 53.21875 53.421875 
Q 53.21875 48.921875 51.53125 44.890625 
Q 49.859375 40.875 45.40625 35.40625 
Q 44.1875 33.984375 37.640625 27.21875 
Q 31.109375 20.453125 19.1875 8.296875 
z
" id="DejaVuSans-32"/>
      </defs>
      <g transform="translate(126.654139 314.077812)scale(0.14 -0.14)">
       <use xlink:href="#DejaVuSans-32"/>
      </g>
     </g>
    </g>
    <g id="xtick_3">
     <g id="line2d_3">
      <g>
       <use style="stroke:#000000;stroke-width:0.8;" x="204.505777" xlink:href="#mda60f0293b" y="296.44"/>
      </g>
     </g>
     <g id="text_3">
      <!-- 4 -->
      <defs>
       <path d="M 37.796875 64.3125 
L 12.890625 25.390625 
L 37.796875 25.390625 
z
M 35.203125 72.90625 
L 47.609375 72.90625 
L 47.609375 25.390625 
L 58.015625 25.390625 
L 58.015625 17.1875 
L 47.609375 17.1875 
L 47.609375 0 
L 37.796875 0 
L 37.796875 17.1875 
L 4.890625 17.1875 
L 4.890625 26.703125 
z
" id="DejaVuSans-34"/>
      </defs>
      <g transform="translate(200.052027 314.077812)scale(0.14 -0.14)">
       <use xlink:href="#DejaVuSans-34"/>
      </g>
     </g>
    </g>
    <g id="xtick_4">
     <g id="line2d_4">
      <g>
       <use style="stroke:#000000;stroke-width:0.8;" x="277.903666" xlink:href="#mda60f0293b" y="296.44"/>
      </g>
     </g>
     <g id="text_4">
      <!-- 6 -->
      <defs>
       <path d="M 33.015625 40.375 
Q 26.375 40.375 22.484375 35.828125 
Q 18.609375 31.296875 18.609375 23.390625 
Q 18.609375 15.53125 22.484375 10.953125 
Q 26.375 6.390625 33.015625 6.390625 
Q 39.65625 6.390625 43.53125 10.953125 
Q 47.40625 15.53125 47.40625 23.390625 
Q 47.40625 31.296875 43.53125 35.828125 
Q 39.65625 40.375 33.015625 40.375 
z
M 52.59375 71.296875 
L 52.59375 62.3125 
Q 48.875 64.0625 45.09375 64.984375 
Q 41.3125 65.921875 37.59375 65.921875 
Q 27.828125 65.921875 22.671875 59.328125 
Q 17.53125 52.734375 16.796875 39.40625 
Q 19.671875 43.65625 24.015625 45.921875 
Q 28.375 48.1875 33.59375 48.1875 
Q 44.578125 48.1875 50.953125 41.515625 
Q 57.328125 34.859375 57.328125 23.390625 
Q 57.328125 12.15625 50.6875 5.359375 
Q 44.046875 -1.421875 33.015625 -1.421875 
Q 20.359375 -1.421875 13.671875 8.265625 
Q 6.984375 17.96875 6.984375 36.375 
Q 6.984375 53.65625 15.1875 63.9375 
Q 23.390625 74.21875 37.203125 74.21875 
Q 40.921875 74.21875 44.703125 73.484375 
Q 48.484375 72.75 52.59375 71.296875 
z
" id="DejaVuSans-36"/>
      </defs>
      <g transform="translate(273.449916 314.077812)scale(0.14 -0.14)">
       <use xlink:href="#DejaVuSans-36"/>
      </g>
     </g>
    </g>
    <g id="xtick_5">
     <g id="line2d_5">
      <g>
       <use style="stroke:#000000;stroke-width:0.8;" x="351.301554" xlink:href="#mda60f0293b" y="296.44"/>
      </g>
     </g>
     <g id="text_5">
      <!-- 8 -->
      <defs>
       <path d="M 31.78125 34.625 
Q 24.75 34.625 20.71875 30.859375 
Q 16.703125 27.09375 16.703125 20.515625 
Q 16.703125 13.921875 20.71875 10.15625 
Q 24.75 6.390625 31.78125 6.390625 
Q 38.8125 6.390625 42.859375 10.171875 
Q 46.921875 13.96875 46.921875 20.515625 
Q 46.921875 27.09375 42.890625 30.859375 
Q 38.875 34.625 31.78125 34.625 
z
M 21.921875 38.8125 
Q 15.578125 40.375 12.03125 44.71875 
Q 8.5 49.078125 8.5 55.328125 
Q 8.5 64.0625 14.71875 69.140625 
Q 20.953125 74.21875 31.78125 74.21875 
Q 42.671875 74.21875 48.875 69.140625 
Q 55.078125 64.0625 55.078125 55.328125 
Q 55.078125 49.078125 51.53125 44.71875 
Q 48 40.375 41.703125 38.8125 
Q 48.828125 37.15625 52.796875 32.3125 
Q 56.78125 27.484375 56.78125 20.515625 
Q 56.78125 9.90625 50.3125 4.234375 
Q 43.84375 -1.421875 31.78125 -1.421875 
Q 19.734375 -1.421875 13.25 4.234375 
Q 6.78125 9.90625 6.78125 20.515625 
Q 6.78125 27.484375 10.78125 32.3125 
Q 14.796875 37.15625 21.921875 38.8125 
z
M 18.3125 54.390625 
Q 18.3125 48.734375 21.84375 45.5625 
Q 25.390625 42.390625 31.78125 42.390625 
Q 38.140625 42.390625 41.71875 45.5625 
Q 45.3125 48.734375 45.3125 54.390625 
Q 45.3125 60.0625 41.71875 63.234375 
Q 38.140625 66.40625 31.78125 66.40625 
Q 25.390625 66.40625 21.84375 63.234375 
Q 18.3125 60.0625 18.3125 54.390625 
z
" id="DejaVuSans-38"/>
      </defs>
      <g transform="translate(346.847804 314.077812)scale(0.14 -0.14)">
       <use xlink:href="#DejaVuSans-38"/>
      </g>
     </g>
    </g>
    <g id="xtick_6">
     <g id="line2d_6">
      <g>
       <use style="stroke:#000000;stroke-width:0.8;" x="424.699443" xlink:href="#mda60f0293b" y="296.44"/>
      </g>
     </g>
     <g id="text_6">
      <!-- 10 -->
      <defs>
       <path d="M 12.40625 8.296875 
L 28.515625 8.296875 
L 28.515625 63.921875 
L 10.984375 60.40625 
L 10.984375 69.390625 
L 28.421875 72.90625 
L 38.28125 72.90625 
L 38.28125 8.296875 
L 54.390625 8.296875 
L 54.390625 0 
L 12.40625 0 
z
" id="DejaVuSans-31"/>
      </defs>
      <g transform="translate(415.791943 314.077812)scale(0.14 -0.14)">
       <use xlink:href="#DejaVuSans-31"/>
       <use x="63.623047" xlink:href="#DejaVuSans-30"/>
      </g>
     </g>
    </g>
    <g id="text_7">
     <!-- Frequency (THz) -->
     <defs>
      <path d="M 9.8125 72.90625 
L 51.703125 72.90625 
L 51.703125 64.59375 
L 19.671875 64.59375 
L 19.671875 43.109375 
L 48.578125 43.109375 
L 48.578125 34.8125 
L 19.671875 34.8125 
L 19.671875 0 
L 9.8125 0 
z
" id="DejaVuSans-46"/>
      <path d="M 41.109375 46.296875 
Q 39.59375 47.171875 37.8125 47.578125 
Q 36.03125 48 33.890625 48 
Q 26.265625 48 22.1875 43.046875 
Q 18.109375 38.09375 18.109375 28.8125 
L 18.109375 0 
L 9.078125 0 
L 9.078125 54.6875 
L 18.109375 54.6875 
L 18.109375 46.1875 
Q 20.953125 51.171875 25.484375 53.578125 
Q 30.03125 56 36.53125 56 
Q 37.453125 56 38.578125 55.875 
Q 39.703125 55.765625 41.0625 55.515625 
z
" id="DejaVuSans-72"/>
      <path d="M 56.203125 29.59375 
L 56.203125 25.203125 
L 14.890625 25.203125 
Q 15.484375 15.921875 20.484375 11.0625 
Q 25.484375 6.203125 34.421875 6.203125 
Q 39.59375 6.203125 44.453125 7.46875 
Q 49.3125 8.734375 54.109375 11.28125 
L 54.109375 2.78125 
Q 49.265625 0.734375 44.1875 -0.34375 
Q 39.109375 -1.421875 33.890625 -1.421875 
Q 20.796875 -1.421875 13.15625 6.1875 
Q 5.515625 13.8125 5.515625 26.8125 
Q 5.515625 40.234375 12.765625 48.109375 
Q 20.015625 56 32.328125 56 
Q 43.359375 56 49.78125 48.890625 
Q 56.203125 41.796875 56.203125 29.59375 
z
M 47.21875 32.234375 
Q 47.125 39.59375 43.09375 43.984375 
Q 39.0625 48.390625 32.421875 48.390625 
Q 24.90625 48.390625 20.390625 44.140625 
Q 15.875 39.890625 15.1875 32.171875 
z
" id="DejaVuSans-65"/>
      <path d="M 14.796875 27.296875 
Q 14.796875 17.390625 18.875 11.75 
Q 22.953125 6.109375 30.078125 6.109375 
Q 37.203125 6.109375 41.296875 11.75 
Q 45.40625 17.390625 45.40625 27.296875 
Q 45.40625 37.203125 41.296875 42.84375 
Q 37.203125 48.484375 30.078125 48.484375 
Q 22.953125 48.484375 18.875 42.84375 
Q 14.796875 37.203125 14.796875 27.296875 
z
M 45.40625 8.203125 
Q 42.578125 3.328125 38.25 0.953125 
Q 33.9375 -1.421875 27.875 -1.421875 
Q 17.96875 -1.421875 11.734375 6.484375 
Q 5.515625 14.40625 5.515625 27.296875 
Q 5.515625 40.1875 11.734375 48.09375 
Q 17.96875 56 27.875 56 
Q 33.9375 56 38.25 53.625 
Q 42.578125 51.265625 45.40625 46.390625 
L 45.40625 54.6875 
L 54.390625 54.6875 
L 54.390625 -20.796875 
L 45.40625 -20.796875 
z
" id="DejaVuSans-71"/>
      <path d="M 8.5 21.578125 
L 8.5 54.6875 
L 17.484375 54.6875 
L 17.484375 21.921875 
Q 17.484375 14.15625 20.5 10.265625 
Q 23.53125 6.390625 29.59375 6.390625 
Q 36.859375 6.390625 41.078125 11.03125 
Q 45.3125 15.671875 45.3125 23.6875 
L 45.3125 54.6875 
L 54.296875 54.6875 
L 54.296875 0 
L 45.3125 0 
L 45.3125 8.40625 
Q 42.046875 3.421875 37.71875 1 
Q 33.40625 -1.421875 27.6875 -1.421875 
Q 18.265625 -1.421875 13.375 4.4375 
Q 8.5 10.296875 8.5 21.578125 
z
M 31.109375 56 
z
" id="DejaVuSans-75"/>
      <path d="M 54.890625 33.015625 
L 54.890625 0 
L 45.90625 0 
L 45.90625 32.71875 
Q 45.90625 40.484375 42.875 44.328125 
Q 39.84375 48.1875 33.796875 48.1875 
Q 26.515625 48.1875 22.3125 43.546875 
Q 18.109375 38.921875 18.109375 30.90625 
L 18.109375 0 
L 9.078125 0 
L 9.078125 54.6875 
L 18.109375 54.6875 
L 18.109375 46.1875 
Q 21.34375 51.125 25.703125 53.5625 
Q 30.078125 56 35.796875 56 
Q 45.21875 56 50.046875 50.171875 
Q 54.890625 44.34375 54.890625 33.015625 
z
" id="DejaVuSans-6e"/>
      <path d="M 48.78125 52.59375 
L 48.78125 44.1875 
Q 44.96875 46.296875 41.140625 47.34375 
Q 37.3125 48.390625 33.40625 48.390625 
Q 24.65625 48.390625 19.8125 42.84375 
Q 14.984375 37.3125 14.984375 27.296875 
Q 14.984375 17.28125 19.8125 11.734375 
Q 24.65625 6.203125 33.40625 6.203125 
Q 37.3125 6.203125 41.140625 7.25 
Q 44.96875 8.296875 48.78125 10.40625 
L 48.78125 2.09375 
Q 45.015625 0.34375 40.984375 -0.53125 
Q 36.96875 -1.421875 32.421875 -1.421875 
Q 20.0625 -1.421875 12.78125 6.34375 
Q 5.515625 14.109375 5.515625 27.296875 
Q 5.515625 40.671875 12.859375 48.328125 
Q 20.21875 56 33.015625 56 
Q 37.15625 56 41.109375 55.140625 
Q 45.0625 54.296875 48.78125 52.59375 
z
" id="DejaVuSans-63"/>
      <path d="M 32.171875 -5.078125 
Q 28.375 -14.84375 24.75 -17.8125 
Q 21.140625 -20.796875 15.09375 -20.796875 
L 7.90625 -20.796875 
L 7.90625 -13.28125 
L 13.1875 -13.28125 
Q 16.890625 -13.28125 18.9375 -11.515625 
Q 21 -9.765625 23.484375 -3.21875 
L 25.09375 0.875 
L 2.984375 54.6875 
L 12.5 54.6875 
L 29.59375 11.921875 
L 46.6875 54.6875 
L 56.203125 54.6875 
z
" id="DejaVuSans-79"/>
      <path id="DejaVuSans-20"/>
      <path d="M 31 75.875 
Q 24.46875 64.65625 21.28125 53.65625 
Q 18.109375 42.671875 18.109375 31.390625 
Q 18.109375 20.125 21.3125 9.0625 
Q 24.515625 -2 31 -13.1875 
L 23.1875 -13.1875 
Q 15.875 -1.703125 12.234375 9.375 
Q 8.59375 20.453125 8.59375 31.390625 
Q 8.59375 42.28125 12.203125 53.3125 
Q 15.828125 64.359375 23.1875 75.875 
z
" id="DejaVuSans-28"/>
      <path d="M -0.296875 72.90625 
L 61.375 72.90625 
L 61.375 64.59375 
L 35.5 64.59375 
L 35.5 0 
L 25.59375 0 
L 25.59375 64.59375 
L -0.296875 64.59375 
z
" id="DejaVuSans-54"/>
      <path d="M 9.8125 72.90625 
L 19.671875 72.90625 
L 19.671875 43.015625 
L 55.515625 43.015625 
L 55.515625 72.90625 
L 65.375 72.90625 
L 65.375 0 
L 55.515625 0 
L 55.515625 34.71875 
L 19.671875 34.71875 
L 19.671875 0 
L 9.8125 0 
z
" id="DejaVuSans-48"/>
      <path d="M 5.515625 54.6875 
L 48.1875 54.6875 
L 48.1875 46.484375 
L 14.40625 7.171875 
L 48.1875 7.171875 
L 48.1875 0 
L 4.296875 0 
L 4.296875 8.203125 
L 38.09375 47.515625 
L 5.515625 47.515625 
z
" id="DejaVuSans-7a"/>
      <path d="M 8.015625 75.875 
L 15.828125 75.875 
Q 23.140625 64.359375 26.78125 53.3125 
Q 30.421875 42.28125 30.421875 31.390625 
Q 30.421875 20.453125 26.78125 9.375 
Q 23.140625 -1.703125 15.828125 -13.1875 
L 8.015625 -13.1875 
Q 14.5 -2 17.703125 9.0625 
Q 20.90625 20.125 20.90625 31.390625 
Q 20.90625 42.671875 17.703125 53.65625 
Q 14.5 64.65625 8.015625 75.875 
z
" id="DejaVuSans-29"/>
     </defs>
     <g transform="translate(194.877813 331.627187)scale(0.14 -0.14)">
      <use xlink:href="#DejaVuSans-46"/>
      <use x="57.410156" xlink:href="#DejaVuSans-72"/>
      <use x="98.492188" xlink:href="#DejaVuSans-65"/>
      <use x="160.015625" xlink:href="#DejaVuSans-71"/>
      <use x="223.492188" xlink:href="#DejaVuSans-75"/>
      <use x="286.871094" xlink:href="#DejaVuSans-65"/>
      <use x="348.394531" xlink:href="#DejaVuSans-6e"/>
      <use x="411.773438" xlink:href="#DejaVuSans-63"/>
      <use x="466.753906" xlink:href="#DejaVuSans-79"/>
      <use x="525.933594" xlink:href="#DejaVuSans-20"/>
      <use x="557.720703" xlink:href="#DejaVuSans-28"/>
      <use x="596.734375" xlink:href="#DejaVuSans-54"/>
      <use x="657.818359" xlink:href="#DejaVuSans-48"/>
      <use x="733.013672" xlink:href="#DejaVuSans-7a"/>
      <use x="785.503906" xlink:href="#DejaVuSans-29"/>
     </g>
    </g>
   </g>
   <g id="matplotlib.axis_2">
    <g id="ytick_1">
     <g id="line2d_7">
      <defs>
       <path d="M 0 0 
L -3.5 0 
" id="m3784b05329" style="stroke:#000000;stroke-width:0.8;"/>
      </defs>
      <g>
       <use style="stroke:#000000;stroke-width:0.8;" x="57.71" xlink:href="#m3784b05329" y="296.44"/>
      </g>
     </g>
     <g id="text_8">
      <!-- 0.0 -->
      <defs>
       <path d="M 10.6875 12.40625 
L 21 12.40625 
L 21 0 
L 10.6875 0 
z
" id="DejaVuSans-2e"/>
      </defs>
      <g transform="translate(28.445625 301.758906)scale(0.14 -0.14)">
       <use xlink:href="#DejaVuSans-30"/>
       <use x="63.623047" xlink:href="#DejaVuSans-2e"/>
       <use x="95.410156" xlink:href="#DejaVuSans-30"/>
      </g>
     </g>
    </g>
    <g id="ytick_2">
     <g id="line2d_8">
      <g>
       <use style="stroke:#000000;stroke-width:0.8;" x="57.71" xlink:href="#m3784b05329" y="238.453224"/>
      </g>
     </g>
     <g id="text_9">
      <!-- 0.2 -->
      <g transform="translate(28.445625 243.77213)scale(0.14 -0.14)">
       <use xlink:href="#DejaVuSans-30"/>
       <use x="63.623047" xlink:href="#DejaVuSans-2e"/>
       <use x="95.410156" xlink:href="#DejaVuSans-32"/>
      </g>
     </g>
    </g>
    <g id="ytick_3">
     <g id="line2d_9">
      <g>
       <use style="stroke:#000000;stroke-width:0.8;" x="57.71" xlink:href="#m3784b05329" y="180.466448"/>
      </g>
     </g>
     <g id="text_10">
      <!-- 0.4 -->
      <g transform="translate(28.445625 185.785354)scale(0.14 -0.14)">
       <use xlink:href="#DejaVuSans-30"/>
       <use x="63.623047" xlink:href="#DejaVuSans-2e"/>
       <use x="95.410156" xlink:href="#DejaVuSans-34"/>
      </g>
     </g>
    </g>
    <g id="ytick_4">
     <g id="line2d_10">
      <g>
       <use style="stroke:#000000;stroke-width:0.8;" x="57.71" xlink:href="#m3784b05329" y="122.479671"/>
      </g>
     </g>
     <g id="text_11">
      <!-- 0.6 -->
      <g transform="translate(28.445625 127.798578)scale(0.14 -0.14)">
       <use xlink:href="#DejaVuSans-30"/>
       <use x="63.623047" xlink:href="#DejaVuSans-2e"/>
       <use x="95.410156" xlink:href="#DejaVuSans-36"/>
      </g>
     </g>
    </g>
    <g id="ytick_5">
     <g id="line2d_11">
      <g>
       <use style="stroke:#000000;stroke-width:0.8;" x="57.71" xlink:href="#m3784b05329" y="64.492895"/>
      </g>
     </g>
     <g id="text_12">
      <!-- 0.8 -->
      <g transform="translate(28.445625 69.811802)scale(0.14 -0.14)">
       <use xlink:href="#DejaVuSans-30"/>
       <use x="63.623047" xlink:href="#DejaVuSans-2e"/>
       <use x="95.410156" xlink:href="#DejaVuSans-38"/>
      </g>
     </g>
    </g>
    <g id="text_13">
     <!-- Gamma (THz) -->
     <defs>
      <path d="M 59.515625 10.40625 
L 59.515625 29.984375 
L 43.40625 29.984375 
L 43.40625 38.09375 
L 69.28125 38.09375 
L 69.28125 6.78125 
Q 63.578125 2.734375 56.6875 0.65625 
Q 49.8125 -1.421875 42 -1.421875 
Q 24.90625 -1.421875 15.25 8.5625 
Q 5.609375 18.5625 5.609375 36.375 
Q 5.609375 54.25 15.25 64.234375 
Q 24.90625 74.21875 42 74.21875 
Q 49.125 74.21875 55.546875 72.453125 
Q 61.96875 70.703125 67.390625 67.28125 
L 67.390625 56.78125 
Q 61.921875 61.421875 55.765625 63.765625 
Q 49.609375 66.109375 42.828125 66.109375 
Q 29.4375 66.109375 22.71875 58.640625 
Q 16.015625 51.171875 16.015625 36.375 
Q 16.015625 21.625 22.71875 14.15625 
Q 29.4375 6.6875 42.828125 6.6875 
Q 48.046875 6.6875 52.140625 7.59375 
Q 56.25 8.5 59.515625 10.40625 
z
" id="DejaVuSans-47"/>
      <path d="M 34.28125 27.484375 
Q 23.390625 27.484375 19.1875 25 
Q 14.984375 22.515625 14.984375 16.5 
Q 14.984375 11.71875 18.140625 8.90625 
Q 21.296875 6.109375 26.703125 6.109375 
Q 34.1875 6.109375 38.703125 11.40625 
Q 43.21875 16.703125 43.21875 25.484375 
L 43.21875 27.484375 
z
M 52.203125 31.203125 
L 52.203125 0 
L 43.21875 0 
L 43.21875 8.296875 
Q 40.140625 3.328125 35.546875 0.953125 
Q 30.953125 -1.421875 24.3125 -1.421875 
Q 15.921875 -1.421875 10.953125 3.296875 
Q 6 8.015625 6 15.921875 
Q 6 25.140625 12.171875 29.828125 
Q 18.359375 34.515625 30.609375 34.515625 
L 43.21875 34.515625 
L 43.21875 35.40625 
Q 43.21875 41.609375 39.140625 45 
Q 35.0625 48.390625 27.6875 48.390625 
Q 23 48.390625 18.546875 47.265625 
Q 14.109375 46.140625 10.015625 43.890625 
L 10.015625 52.203125 
Q 14.9375 54.109375 19.578125 55.046875 
Q 24.21875 56 28.609375 56 
Q 40.484375 56 46.34375 49.84375 
Q 52.203125 43.703125 52.203125 31.203125 
z
" id="DejaVuSans-61"/>
      <path d="M 52 44.1875 
Q 55.375 50.25 60.0625 53.125 
Q 64.75 56 71.09375 56 
Q 79.640625 56 84.28125 50.015625 
Q 88.921875 44.046875 88.921875 33.015625 
L 88.921875 0 
L 79.890625 0 
L 79.890625 32.71875 
Q 79.890625 40.578125 77.09375 44.375 
Q 74.3125 48.1875 68.609375 48.1875 
Q 61.625 48.1875 57.5625 43.546875 
Q 53.515625 38.921875 53.515625 30.90625 
L 53.515625 0 
L 44.484375 0 
L 44.484375 32.71875 
Q 44.484375 40.625 41.703125 44.40625 
Q 38.921875 48.1875 33.109375 48.1875 
Q 26.21875 48.1875 22.15625 43.53125 
Q 18.109375 38.875 18.109375 30.90625 
L 18.109375 0 
L 9.078125 0 
L 9.078125 54.6875 
L 18.109375 54.6875 
L 18.109375 46.1875 
Q 21.1875 51.21875 25.484375 53.609375 
Q 29.78125 56 35.6875 56 
Q 41.65625 56 45.828125 52.96875 
Q 50 49.953125 52 44.1875 
z
" id="DejaVuSans-6d"/>
     </defs>
     <g transform="translate(21.534063 210.200625)rotate(-90)scale(0.14 -0.14)">
      <use xlink:href="#DejaVuSans-47"/>
      <use x="77.490234" xlink:href="#DejaVuSans-61"/>
      <use x="138.769531" xlink:href="#DejaVuSans-6d"/>
      <use x="236.181641" xlink:href="#DejaVuSans-6d"/>
      <use x="333.59375" xlink:href="#DejaVuSans-61"/>
      <use x="394.873047" xlink:href="#DejaVuSans-20"/>
      <use x="426.660156" xlink:href="#DejaVuSans-28"/>
      <use x="465.673828" xlink:href="#DejaVuSans-54"/>
      <use x="526.757812" xlink:href="#DejaVuSans-48"/>
      <use x="601.953125" xlink:href="#DejaVuSans-7a"/>
      <use x="654.443359" xlink:href="#DejaVuSans-29"/>
     </g>
    </g>
   </g>
   <g id="line2d_12">
    <defs>
     <path d="M 0 2 
C 0.530406 2 1.03916 1.789267 1.414214 1.414214 
C 1.789267 1.03916 2 0.530406 2 0 
C 2 -0.530406 1.789267 -1.03916 1.414214 -1.414214 
C 1.03916 -1.789267 0.530406 -2 0 -2 
C -0.530406 -2 -1.03916 -1.789267 -1.414214 -1.414214 
C -1.789267 -1.03916 -2 -0.530406 -2 0 
C -2 0.530406 -1.789267 1.03916 -1.414214 1.414214 
C -1.03916 1.789267 -0.530406 2 0 2 
z
" id="mb9db899760" style="stroke:#1f77b4;"/>
    </defs>
    <g clip-path="url(#p8e05d7996a)">
     <use style="fill:#1f77b4;stroke:#1f77b4;" x="57.710004" xlink:href="#mb9db899760" y="296.44"/>
     <use style="fill:#1f77b4;stroke:#1f77b4;" x="57.710005" xlink:href="#mb9db899760" y="296.44"/>
     <use style="fill:#1f77b4;stroke:#1f77b4;" x="57.710005" xlink:href="#mb9db899760" y="296.44"/>
     <use style="fill:#1f77b4;stroke:#1f77b4;" x="93.476639" xlink:href="#mb9db899760" y="289.316457"/>
     <use style="fill:#1f77b4;stroke:#1f77b4;" x="93.476639" xlink:href="#mb9db899760" y="289.316457"/>
     <use style="fill:#1f77b4;stroke:#1f77b4;" x="135.768165" xlink:href="#mb9db899760" y="283.393283"/>
     <use style="fill:#1f77b4;stroke:#1f77b4;" x="127.555528" xlink:href="#mb9db899760" y="275.517226"/>
     <use style="fill:#1f77b4;stroke:#1f77b4;" x="127.555528" xlink:href="#mb9db899760" y="275.517226"/>
     <use style="fill:#1f77b4;stroke:#1f77b4;" x="211.009393" xlink:href="#mb9db899760" y="248.370565"/>
     <use style="fill:#1f77b4;stroke:#1f77b4;" x="158.297005" xlink:href="#mb9db899760" y="255.795452"/>
     <use style="fill:#1f77b4;stroke:#1f77b4;" x="158.297005" xlink:href="#mb9db899760" y="255.795452"/>
     <use style="fill:#1f77b4;stroke:#1f77b4;" x="280.259508" xlink:href="#mb9db899760" y="281.659649"/>
     <use style="fill:#1f77b4;stroke:#1f77b4;" x="184.146444" xlink:href="#mb9db899760" y="252.172978"/>
     <use style="fill:#1f77b4;stroke:#1f77b4;" x="184.146444" xlink:href="#mb9db899760" y="252.172978"/>
     <use style="fill:#1f77b4;stroke:#1f77b4;" x="339.88858" xlink:href="#mb9db899760" y="252.137463"/>
     <use style="fill:#1f77b4;stroke:#1f77b4;" x="203.728389" xlink:href="#mb9db899760" y="250.755657"/>
     <use style="fill:#1f77b4;stroke:#1f77b4;" x="203.728389" xlink:href="#mb9db899760" y="250.755657"/>
     <use style="fill:#1f77b4;stroke:#1f77b4;" x="386.083465" xlink:href="#mb9db899760" y="220.608741"/>
     <use style="fill:#1f77b4;stroke:#1f77b4;" x="215.950435" xlink:href="#mb9db899760" y="248.746884"/>
     <use style="fill:#1f77b4;stroke:#1f77b4;" x="215.950435" xlink:href="#mb9db899760" y="248.746884"/>
     <use style="fill:#1f77b4;stroke:#1f77b4;" x="415.412651" xlink:href="#mb9db899760" y="212.104811"/>
     <use style="fill:#1f77b4;stroke:#1f77b4;" x="220.106057" xlink:href="#mb9db899760" y="241.617891"/>
     <use style="fill:#1f77b4;stroke:#1f77b4;" x="220.106057" xlink:href="#mb9db899760" y="241.617891"/>
     <use style="fill:#1f77b4;stroke:#1f77b4;" x="425.476635" xlink:href="#mb9db899760" y="209.917549"/>
     <use style="fill:#1f77b4;stroke:#1f77b4;" x="114.197946" xlink:href="#mb9db899760" y="284.477319"/>
     <use style="fill:#1f77b4;stroke:#1f77b4;" x="114.197946" xlink:href="#mb9db899760" y="284.477319"/>
     <use style="fill:#1f77b4;stroke:#1f77b4;" x="129.758619" xlink:href="#mb9db899760" y="291.690194"/>
     <use style="fill:#1f77b4;stroke:#1f77b4;" x="130.330272" xlink:href="#mb9db899760" y="277.273106"/>
     <use style="fill:#1f77b4;stroke:#1f77b4;" x="143.443806" xlink:href="#mb9db899760" y="268.838049"/>
     <use style="fill:#1f77b4;stroke:#1f77b4;" x="193.165603" xlink:href="#mb9db899760" y="263.527471"/>
     <use style="fill:#1f77b4;stroke:#1f77b4;" x="154.223835" xlink:href="#mb9db899760" y="259.54636"/>
     <use style="fill:#1f77b4;stroke:#1f77b4;" x="171.566933" xlink:href="#mb9db899760" y="249.894325"/>
     <use style="fill:#1f77b4;stroke:#1f77b4;" x="261.259925" xlink:href="#mb9db899760" y="255.249768"/>
     <use style="fill:#1f77b4;stroke:#1f77b4;" x="180.428227" xlink:href="#mb9db899760" y="254.764489"/>
     <use style="fill:#1f77b4;stroke:#1f77b4;" x="195.365708" xlink:href="#mb9db899760" y="248.436242"/>
     <use style="fill:#1f77b4;stroke:#1f77b4;" x="322.381722" xlink:href="#mb9db899760" y="263.274658"/>
     <use style="fill:#1f77b4;stroke:#1f77b4;" x="203.872257" xlink:href="#mb9db899760" y="252.543034"/>
     <use style="fill:#1f77b4;stroke:#1f77b4;" x="213.049026" xlink:href="#mb9db899760" y="249.805566"/>
     <use style="fill:#1f77b4;stroke:#1f77b4;" x="371.991598" xlink:href="#mb9db899760" y="221.479349"/>
     <use style="fill:#1f77b4;stroke:#1f77b4;" x="221.838502" xlink:href="#mb9db899760" y="255.953725"/>
     <use style="fill:#1f77b4;stroke:#1f77b4;" x="223.421886" xlink:href="#mb9db899760" y="252.457245"/>
     <use style="fill:#1f77b4;stroke:#1f77b4;" x="406.294003" xlink:href="#mb9db899760" y="211.960147"/>
     <use style="fill:#1f77b4;stroke:#1f77b4;" x="225.777376" xlink:href="#mb9db899760" y="253.891212"/>
     <use style="fill:#1f77b4;stroke:#1f77b4;" x="232.717964" xlink:href="#mb9db899760" y="259.334705"/>
     <use style="fill:#1f77b4;stroke:#1f77b4;" x="422.452816" xlink:href="#mb9db899760" y="206.973438"/>
     <use style="fill:#1f77b4;stroke:#1f77b4;" x="219.918183" xlink:href="#mb9db899760" y="249.153036"/>
     <use style="fill:#1f77b4;stroke:#1f77b4;" x="235.644615" xlink:href="#mb9db899760" y="259.728922"/>
     <use style="fill:#1f77b4;stroke:#1f77b4;" x="419.068815" xlink:href="#mb9db899760" y="207.365036"/>
     <use style="fill:#1f77b4;stroke:#1f77b4;" x="206.184876" xlink:href="#mb9db899760" y="245.375429"/>
     <use style="fill:#1f77b4;stroke:#1f77b4;" x="230.390245" xlink:href="#mb9db899760" y="251.27851"/>
     <use style="fill:#1f77b4;stroke:#1f77b4;" x="396.465175" xlink:href="#mb9db899760" y="214.147183"/>
     <use style="fill:#1f77b4;stroke:#1f77b4;" x="185.465134" xlink:href="#mb9db899760" y="247.892293"/>
     <use style="fill:#1f77b4;stroke:#1f77b4;" x="217.301973" xlink:href="#mb9db899760" y="249.971338"/>
     <use style="fill:#1f77b4;stroke:#1f77b4;" x="356.651697" xlink:href="#mb9db899760" y="229.338999"/>
     <use style="fill:#1f77b4;stroke:#1f77b4;" x="159.22576" xlink:href="#mb9db899760" y="256.522504"/>
     <use style="fill:#1f77b4;stroke:#1f77b4;" x="197.203724" xlink:href="#mb9db899760" y="250.686344"/>
     <use style="fill:#1f77b4;stroke:#1f77b4;" x="303.033863" xlink:href="#mb9db899760" y="271.612816"/>
     <use style="fill:#1f77b4;stroke:#1f77b4;" x="129.79974" xlink:href="#mb9db899760" y="274.521398"/>
     <use style="fill:#1f77b4;stroke:#1f77b4;" x="171.08442" xlink:href="#mb9db899760" y="252.010746"/>
     <use style="fill:#1f77b4;stroke:#1f77b4;" x="240.303188" xlink:href="#mb9db899760" y="257.665253"/>
     <use style="fill:#1f77b4;stroke:#1f77b4;" x="102.291134" xlink:href="#mb9db899760" y="284.485883"/>
     <use style="fill:#1f77b4;stroke:#1f77b4;" x="137.840315" xlink:href="#mb9db899760" y="267.68268"/>
     <use style="fill:#1f77b4;stroke:#1f77b4;" x="177.113842" xlink:href="#mb9db899760" y="262.374355"/>
     <use style="fill:#1f77b4;stroke:#1f77b4;" x="167.804104" xlink:href="#mb9db899760" y="242.610227"/>
     <use style="fill:#1f77b4;stroke:#1f77b4;" x="167.804104" xlink:href="#mb9db899760" y="242.610227"/>
     <use style="fill:#1f77b4;stroke:#1f77b4;" x="201.381854" xlink:href="#mb9db899760" y="277.559907"/>
     <use style="fill:#1f77b4;stroke:#1f77b4;" x="185.16801" xlink:href="#mb9db899760" y="233.487395"/>
     <use style="fill:#1f77b4;stroke:#1f77b4;" x="192.870325" xlink:href="#mb9db899760" y="227.060246"/>
     <use style="fill:#1f77b4;stroke:#1f77b4;" x="253.210196" xlink:href="#mb9db899760" y="260.245048"/>
     <use style="fill:#1f77b4;stroke:#1f77b4;" x="204.659173" xlink:href="#mb9db899760" y="243.879528"/>
     <use style="fill:#1f77b4;stroke:#1f77b4;" x="214.576359" xlink:href="#mb9db899760" y="235.330001"/>
     <use style="fill:#1f77b4;stroke:#1f77b4;" x="309.773103" xlink:href="#mb9db899760" y="264.562551"/>
     <use style="fill:#1f77b4;stroke:#1f77b4;" x="226.933889" xlink:href="#mb9db899760" y="256.140309"/>
     <use style="fill:#1f77b4;stroke:#1f77b4;" x="230.618531" xlink:href="#mb9db899760" y="239.306716"/>
     <use style="fill:#1f77b4;stroke:#1f77b4;" x="358.435844" xlink:href="#mb9db899760" y="226.575748"/>
     <use style="fill:#1f77b4;stroke:#1f77b4;" x="239.588158" xlink:href="#mb9db899760" y="250.916124"/>
     <use style="fill:#1f77b4;stroke:#1f77b4;" x="247.547022" xlink:href="#mb9db899760" y="264.911006"/>
     <use style="fill:#1f77b4;stroke:#1f77b4;" x="394.349762" xlink:href="#mb9db899760" y="205.25838"/>
     <use style="fill:#1f77b4;stroke:#1f77b4;" x="240.721261" xlink:href="#mb9db899760" y="255.127595"/>
     <use style="fill:#1f77b4;stroke:#1f77b4;" x="263.193168" xlink:href="#mb9db899760" y="270.114838"/>
     <use style="fill:#1f77b4;stroke:#1f77b4;" x="414.265109" xlink:href="#mb9db899760" y="198.154388"/>
     <use style="fill:#1f77b4;stroke:#1f77b4;" x="233.861931" xlink:href="#mb9db899760" y="256.042131"/>
     <use style="fill:#1f77b4;stroke:#1f77b4;" x="271.766252" xlink:href="#mb9db899760" y="265.274757"/>
     <use style="fill:#1f77b4;stroke:#1f77b4;" x="416.403495" xlink:href="#mb9db899760" y="198.050628"/>
     <use style="fill:#1f77b4;stroke:#1f77b4;" x="219.495237" xlink:href="#mb9db899760" y="252.019165"/>
     <use style="fill:#1f77b4;stroke:#1f77b4;" x="272.066065" xlink:href="#mb9db899760" y="263.451532"/>
     <use style="fill:#1f77b4;stroke:#1f77b4;" x="400.75061" xlink:href="#mb9db899760" y="199.721835"/>
     <use style="fill:#1f77b4;stroke:#1f77b4;" x="198.823716" xlink:href="#mb9db899760" y="247.80101"/>
     <use style="fill:#1f77b4;stroke:#1f77b4;" x="263.462656" xlink:href="#mb9db899760" y="261.421091"/>
     <use style="fill:#1f77b4;stroke:#1f77b4;" x="369.28606" xlink:href="#mb9db899760" y="211.0522"/>
     <use style="fill:#1f77b4;stroke:#1f77b4;" x="173.972942" xlink:href="#mb9db899760" y="252.561187"/>
     <use style="fill:#1f77b4;stroke:#1f77b4;" x="245.235247" xlink:href="#mb9db899760" y="259.183311"/>
     <use style="fill:#1f77b4;stroke:#1f77b4;" x="326.358379" xlink:href="#mb9db899760" y="252.1288"/>
     <use style="fill:#1f77b4;stroke:#1f77b4;" x="148.64478" xlink:href="#mb9db899760" y="265.488644"/>
     <use style="fill:#1f77b4;stroke:#1f77b4;" x="215.108284" xlink:href="#mb9db899760" y="233.594567"/>
     <use style="fill:#1f77b4;stroke:#1f77b4;" x="279.898411" xlink:href="#mb9db899760" y="256.09576"/>
     <use style="fill:#1f77b4;stroke:#1f77b4;" x="215.812623" xlink:href="#mb9db899760" y="234.383452"/>
     <use style="fill:#1f77b4;stroke:#1f77b4;" x="215.812623" xlink:href="#mb9db899760" y="234.383452"/>
     <use style="fill:#1f77b4;stroke:#1f77b4;" x="270.610847" xlink:href="#mb9db899760" y="274.328847"/>
     <use style="fill:#1f77b4;stroke:#1f77b4;" x="234.852461" xlink:href="#mb9db899760" y="250.799015"/>
     <use style="fill:#1f77b4;stroke:#1f77b4;" x="236.158754" xlink:href="#mb9db899760" y="242.548272"/>
     <use style="fill:#1f77b4;stroke:#1f77b4;" x="311.412505" xlink:href="#mb9db899760" y="258.957573"/>
     <use style="fill:#1f77b4;stroke:#1f77b4;" x="251.296788" xlink:href="#mb9db899760" y="249.355638"/>
     <use style="fill:#1f77b4;stroke:#1f77b4;" x="255.269346" xlink:href="#mb9db899760" y="265.587682"/>
     <use style="fill:#1f77b4;stroke:#1f77b4;" x="352.856797" xlink:href="#mb9db899760" y="225.364763"/>
     <use style="fill:#1f77b4;stroke:#1f77b4;" x="259.63652" xlink:href="#mb9db899760" y="255.794159"/>
     <use style="fill:#1f77b4;stroke:#1f77b4;" x="277.326759" xlink:href="#mb9db899760" y="276.17219"/>
     <use style="fill:#1f77b4;stroke:#1f77b4;" x="385.205796" xlink:href="#mb9db899760" y="207.655018"/>
     <use style="fill:#1f77b4;stroke:#1f77b4;" x="260.347556" xlink:href="#mb9db899760" y="258.607864"/>
     <use style="fill:#1f77b4;stroke:#1f77b4;" x="297.170204" xlink:href="#mb9db899760" y="279.778016"/>
     <use style="fill:#1f77b4;stroke:#1f77b4;" x="404.358297" xlink:href="#mb9db899760" y="186.185277"/>
     <use style="fill:#1f77b4;stroke:#1f77b4;" x="253.296589" xlink:href="#mb9db899760" y="258.081857"/>
     <use style="fill:#1f77b4;stroke:#1f77b4;" x="311.204917" xlink:href="#mb9db899760" y="269.59096"/>
     <use style="fill:#1f77b4;stroke:#1f77b4;" x="408.454701" xlink:href="#mb9db899760" y="187.690141"/>
     <use style="fill:#1f77b4;stroke:#1f77b4;" x="239.083562" xlink:href="#mb9db899760" y="256.067554"/>
     <use style="fill:#1f77b4;stroke:#1f77b4;" x="316.450453" xlink:href="#mb9db899760" y="267.082453"/>
     <use style="fill:#1f77b4;stroke:#1f77b4;" x="397.834772" xlink:href="#mb9db899760" y="191.99538"/>
     <use style="fill:#1f77b4;stroke:#1f77b4;" x="219.155261" xlink:href="#mb9db899760" y="251.652796"/>
     <use style="fill:#1f77b4;stroke:#1f77b4;" x="309.564403" xlink:href="#mb9db899760" y="267.393992"/>
     <use style="fill:#1f77b4;stroke:#1f77b4;" x="375.994457" xlink:href="#mb9db899760" y="204.280185"/>
     <use style="fill:#1f77b4;stroke:#1f77b4;" x="196.059596" xlink:href="#mb9db899760" y="247.38984"/>
     <use style="fill:#1f77b4;stroke:#1f77b4;" x="285.889553" xlink:href="#mb9db899760" y="273.296203"/>
     <use style="fill:#1f77b4;stroke:#1f77b4;" x="350.35006" xlink:href="#mb9db899760" y="235.774432"/>
     <use style="fill:#1f77b4;stroke:#1f77b4;" x="255.821917" xlink:href="#mb9db899760" y="258.417261"/>
     <use style="fill:#1f77b4;stroke:#1f77b4;" x="255.821917" xlink:href="#mb9db899760" y="258.417261"/>
     <use style="fill:#1f77b4;stroke:#1f77b4;" x="333.371711" xlink:href="#mb9db899760" y="259.032791"/>
     <use style="fill:#1f77b4;stroke:#1f77b4;" x="270.727395" xlink:href="#mb9db899760" y="263.553998"/>
     <use style="fill:#1f77b4;stroke:#1f77b4;" x="274.056564" xlink:href="#mb9db899760" y="264.203205"/>
     <use style="fill:#1f77b4;stroke:#1f77b4;" x="363.231678" xlink:href="#mb9db899760" y="224.985044"/>
     <use style="fill:#1f77b4;stroke:#1f77b4;" x="279.116751" xlink:href="#mb9db899760" y="266.74341"/>
     <use style="fill:#1f77b4;stroke:#1f77b4;" x="295.84015" xlink:href="#mb9db899760" y="269.348533"/>
     <use style="fill:#1f77b4;stroke:#1f77b4;" x="387.790415" xlink:href="#mb9db899760" y="196.039875"/>
     <use style="fill:#1f77b4;stroke:#1f77b4;" x="280.073313" xlink:href="#mb9db899760" y="263.756299"/>
     <use style="fill:#1f77b4;stroke:#1f77b4;" x="319.473054" xlink:href="#mb9db899760" y="275.452153"/>
     <use style="fill:#1f77b4;stroke:#1f77b4;" x="401.128024" xlink:href="#mb9db899760" y="184.011393"/>
     <use style="fill:#1f77b4;stroke:#1f77b4;" x="273.443719" xlink:href="#mb9db899760" y="260.378592"/>
     <use style="fill:#1f77b4;stroke:#1f77b4;" x="340.833938" xlink:href="#mb9db899760" y="266.235056"/>
     <use style="fill:#1f77b4;stroke:#1f77b4;" x="400.96687" xlink:href="#mb9db899760" y="168.509494"/>
     <use style="fill:#1f77b4;stroke:#1f77b4;" x="259.865263" xlink:href="#mb9db899760" y="257.358126"/>
     <use style="fill:#1f77b4;stroke:#1f77b4;" x="354.778747" xlink:href="#mb9db899760" y="247.069652"/>
     <use style="fill:#1f77b4;stroke:#1f77b4;" x="388.506376" xlink:href="#mb9db899760" y="182.757345"/>
     <use style="fill:#1f77b4;stroke:#1f77b4;" x="240.879248" xlink:href="#mb9db899760" y="254.591443"/>
     <use style="fill:#1f77b4;stroke:#1f77b4;" x="345.93945" xlink:href="#mb9db899760" y="263.182204"/>
     <use style="fill:#1f77b4;stroke:#1f77b4;" x="378.015963" xlink:href="#mb9db899760" y="189.842583"/>
     <use style="fill:#1f77b4;stroke:#1f77b4;" x="285.862639" xlink:href="#mb9db899760" y="269.18608"/>
     <use style="fill:#1f77b4;stroke:#1f77b4;" x="285.862639" xlink:href="#mb9db899760" y="269.18608"/>
     <use style="fill:#1f77b4;stroke:#1f77b4;" x="384.139657" xlink:href="#mb9db899760" y="180.946034"/>
     <use style="fill:#1f77b4;stroke:#1f77b4;" x="294.769884" xlink:href="#mb9db899760" y="273.663072"/>
     <use style="fill:#1f77b4;stroke:#1f77b4;" x="300.82088" xlink:href="#mb9db899760" y="276.18099"/>
     <use style="fill:#1f77b4;stroke:#1f77b4;" x="402.550955" xlink:href="#mb9db899760" y="159.006741"/>
     <use style="fill:#1f77b4;stroke:#1f77b4;" x="296.421258" xlink:href="#mb9db899760" y="272.058852"/>
     <use style="fill:#1f77b4;stroke:#1f77b4;" x="321.360709" xlink:href="#mb9db899760" y="276.596998"/>
     <use style="fill:#1f77b4;stroke:#1f77b4;" x="411.149409" xlink:href="#mb9db899760" y="104.879974"/>
     <use style="fill:#1f77b4;stroke:#1f77b4;" x="290.600032" xlink:href="#mb9db899760" y="266.486231"/>
     <use style="fill:#1f77b4;stroke:#1f77b4;" x="344.472545" xlink:href="#mb9db899760" y="259.167961"/>
     <use style="fill:#1f77b4;stroke:#1f77b4;" x="407.124534" xlink:href="#mb9db899760" y="123.581385"/>
     <use style="fill:#1f77b4;stroke:#1f77b4;" x="277.909007" xlink:href="#mb9db899760" y="261.065296"/>
     <use style="fill:#1f77b4;stroke:#1f77b4;" x="364.591592" xlink:href="#mb9db899760" y="201.701597"/>
     <use style="fill:#1f77b4;stroke:#1f77b4;" x="391.349732" xlink:href="#mb9db899760" y="190.618689"/>
     <use style="fill:#1f77b4;stroke:#1f77b4;" x="304.480383" xlink:href="#mb9db899760" y="277.716177"/>
     <use style="fill:#1f77b4;stroke:#1f77b4;" x="304.480383" xlink:href="#mb9db899760" y="277.716177"/>
     <use style="fill:#1f77b4;stroke:#1f77b4;" x="417.350612" xlink:href="#mb9db899760" y="103.481271"/>
     <use style="fill:#1f77b4;stroke:#1f77b4;" x="307.09042" xlink:href="#mb9db899760" y="278.644033"/>
     <use style="fill:#1f77b4;stroke:#1f77b4;" x="314.366474" xlink:href="#mb9db899760" y="280.764575"/>
     <use style="fill:#1f77b4;stroke:#1f77b4;" x="423.809401" xlink:href="#mb9db899760" y="65.649308"/>
     <use style="fill:#1f77b4;stroke:#1f77b4;" x="302.289833" xlink:href="#mb9db899760" y="273.977708"/>
     <use style="fill:#1f77b4;stroke:#1f77b4;" x="329.981749" xlink:href="#mb9db899760" y="280.56871"/>
     <use style="fill:#1f77b4;stroke:#1f77b4;" x="419.442037" xlink:href="#mb9db899760" y="80.565679"/>
     <use style="fill:#1f77b4;stroke:#1f77b4;" x="310.785923" xlink:href="#mb9db899760" y="280.068489"/>
     <use style="fill:#1f77b4;stroke:#1f77b4;" x="310.785923" xlink:href="#mb9db899760" y="280.068489"/>
     <use style="fill:#1f77b4;stroke:#1f77b4;" x="428.919524" xlink:href="#mb9db899760" y="103.461056"/>
     <use style="fill:#1f77b4;stroke:#1f77b4;" x="146.391054" xlink:href="#mb9db899760" y="267.689008"/>
     <use style="fill:#1f77b4;stroke:#1f77b4;" x="182.032085" xlink:href="#mb9db899760" y="242.725817"/>
     <use style="fill:#1f77b4;stroke:#1f77b4;" x="234.499839" xlink:href="#mb9db899760" y="258.290246"/>
     <use style="fill:#1f77b4;stroke:#1f77b4;" x="167.52623" xlink:href="#mb9db899760" y="255.820417"/>
     <use style="fill:#1f77b4;stroke:#1f77b4;" x="212.333198" xlink:href="#mb9db899760" y="237.457811"/>
     <use style="fill:#1f77b4;stroke:#1f77b4;" x="289.158882" xlink:href="#mb9db899760" y="256.387103"/>
     <use style="fill:#1f77b4;stroke:#1f77b4;" x="191.446358" xlink:href="#mb9db899760" y="248.038769"/>
     <use style="fill:#1f77b4;stroke:#1f77b4;" x="234.049883" xlink:href="#mb9db899760" y="244.192984"/>
     <use style="fill:#1f77b4;stroke:#1f77b4;" x="341.510242" xlink:href="#mb9db899760" y="243.582101"/>
     <use style="fill:#1f77b4;stroke:#1f77b4;" x="212.860476" xlink:href="#mb9db899760" y="249.050536"/>
     <use style="fill:#1f77b4;stroke:#1f77b4;" x="248.666154" xlink:href="#mb9db899760" y="256.579209"/>
     <use style="fill:#1f77b4;stroke:#1f77b4;" x="383.410388" xlink:href="#mb9db899760" y="209.300198"/>
     <use style="fill:#1f77b4;stroke:#1f77b4;" x="227.989302" xlink:href="#mb9db899760" y="254.729638"/>
     <use style="fill:#1f77b4;stroke:#1f77b4;" x="256.5392" xlink:href="#mb9db899760" y="257.813575"/>
     <use style="fill:#1f77b4;stroke:#1f77b4;" x="410.341646" xlink:href="#mb9db899760" y="202.380255"/>
     <use style="fill:#1f77b4;stroke:#1f77b4;" x="233.605388" xlink:href="#mb9db899760" y="256.71478"/>
     <use style="fill:#1f77b4;stroke:#1f77b4;" x="258.820257" xlink:href="#mb9db899760" y="265.987853"/>
     <use style="fill:#1f77b4;stroke:#1f77b4;" x="419.624419" xlink:href="#mb9db899760" y="199.708716"/>
     <use style="fill:#1f77b4;stroke:#1f77b4;" x="199.854258" xlink:href="#mb9db899760" y="230.195561"/>
     <use style="fill:#1f77b4;stroke:#1f77b4;" x="226.448889" xlink:href="#mb9db899760" y="243.440759"/>
     <use style="fill:#1f77b4;stroke:#1f77b4;" x="290.439838" xlink:href="#mb9db899760" y="253.116826"/>
     <use style="fill:#1f77b4;stroke:#1f77b4;" x="216.793519" xlink:href="#mb9db899760" y="234.294453"/>
     <use style="fill:#1f77b4;stroke:#1f77b4;" x="252.664754" xlink:href="#mb9db899760" y="253.026119"/>
     <use style="fill:#1f77b4;stroke:#1f77b4;" x="333.798737" xlink:href="#mb9db899760" y="248.891528"/>
     <use style="fill:#1f77b4;stroke:#1f77b4;" x="234.584609" xlink:href="#mb9db899760" y="249.670138"/>
     <use style="fill:#1f77b4;stroke:#1f77b4;" x="271.118093" xlink:href="#mb9db899760" y="262.149945"/>
     <use style="fill:#1f77b4;stroke:#1f77b4;" x="372.230788" xlink:href="#mb9db899760" y="213.560232"/>
     <use style="fill:#1f77b4;stroke:#1f77b4;" x="247.149863" xlink:href="#mb9db899760" y="258.4576"/>
     <use style="fill:#1f77b4;stroke:#1f77b4;" x="284.356968" xlink:href="#mb9db899760" y="269.57422"/>
     <use style="fill:#1f77b4;stroke:#1f77b4;" x="399.28496" xlink:href="#mb9db899760" y="192.501318"/>
     <use style="fill:#1f77b4;stroke:#1f77b4;" x="250.100638" xlink:href="#mb9db899760" y="258.643616"/>
     <use style="fill:#1f77b4;stroke:#1f77b4;" x="293.612579" xlink:href="#mb9db899760" y="264.819524"/>
     <use style="fill:#1f77b4;stroke:#1f77b4;" x="411.515038" xlink:href="#mb9db899760" y="190.912944"/>
     <use style="fill:#1f77b4;stroke:#1f77b4;" x="242.971678" xlink:href="#mb9db899760" y="256.71412"/>
     <use style="fill:#1f77b4;stroke:#1f77b4;" x="297.556866" xlink:href="#mb9db899760" y="266.30241"/>
     <use style="fill:#1f77b4;stroke:#1f77b4;" x="407.627744" xlink:href="#mb9db899760" y="193.039299"/>
     <use style="fill:#1f77b4;stroke:#1f77b4;" x="227.758421" xlink:href="#mb9db899760" y="254.436714"/>
     <use style="fill:#1f77b4;stroke:#1f77b4;" x="293.776278" xlink:href="#mb9db899760" y="264.992218"/>
     <use style="fill:#1f77b4;stroke:#1f77b4;" x="388.523048" xlink:href="#mb9db899760" y="194.333781"/>
     <use style="fill:#1f77b4;stroke:#1f77b4;" x="207.302632" xlink:href="#mb9db899760" y="246.481208"/>
     <use style="fill:#1f77b4;stroke:#1f77b4;" x="279.936633" xlink:href="#mb9db899760" y="266.106157"/>
     <use style="fill:#1f77b4;stroke:#1f77b4;" x="357.746533" xlink:href="#mb9db899760" y="217.259556"/>
     <use style="fill:#1f77b4;stroke:#1f77b4;" x="185.46375" xlink:href="#mb9db899760" y="246.712269"/>
     <use style="fill:#1f77b4;stroke:#1f77b4;" x="253.079444" xlink:href="#mb9db899760" y="261.973007"/>
     <use style="fill:#1f77b4;stroke:#1f77b4;" x="322.125357" xlink:href="#mb9db899760" y="250.87591"/>
     <use style="fill:#1f77b4;stroke:#1f77b4;" x="246.50596" xlink:href="#mb9db899760" y="261.669323"/>
     <use style="fill:#1f77b4;stroke:#1f77b4;" x="264.751139" xlink:href="#mb9db899760" y="248.172918"/>
     <use style="fill:#1f77b4;stroke:#1f77b4;" x="342.114384" xlink:href="#mb9db899760" y="246.00249"/>
     <use style="fill:#1f77b4;stroke:#1f77b4;" x="259.809063" xlink:href="#mb9db899760" y="268.07575"/>
     <use style="fill:#1f77b4;stroke:#1f77b4;" x="287.639936" xlink:href="#mb9db899760" y="258.946586"/>
     <use style="fill:#1f77b4;stroke:#1f77b4;" x="371.61441" xlink:href="#mb9db899760" y="208.035509"/>
     <use style="fill:#1f77b4;stroke:#1f77b4;" x="269.324778" xlink:href="#mb9db899760" y="268.425065"/>
     <use style="fill:#1f77b4;stroke:#1f77b4;" x="307.324989" xlink:href="#mb9db899760" y="270.499561"/>
     <use style="fill:#1f77b4;stroke:#1f77b4;" x="392.948851" xlink:href="#mb9db899760" y="194.065426"/>
     <use style="fill:#1f77b4;stroke:#1f77b4;" x="270.26887" xlink:href="#mb9db899760" y="264.574169"/>
     <use style="fill:#1f77b4;stroke:#1f77b4;" x="324.528199" xlink:href="#mb9db899760" y="274.647407"/>
     <use style="fill:#1f77b4;stroke:#1f77b4;" x="402.410656" xlink:href="#mb9db899760" y="183.314644"/>
     <use style="fill:#1f77b4;stroke:#1f77b4;" x="262.331587" xlink:href="#mb9db899760" y="261.441437"/>
     <use style="fill:#1f77b4;stroke:#1f77b4;" x="335.953237" xlink:href="#mb9db899760" y="266.499262"/>
     <use style="fill:#1f77b4;stroke:#1f77b4;" x="399.110564" xlink:href="#mb9db899760" y="177.378501"/>
     <use style="fill:#1f77b4;stroke:#1f77b4;" x="247.218646" xlink:href="#mb9db899760" y="258.366335"/>
     <use style="fill:#1f77b4;stroke:#1f77b4;" x="336.044911" xlink:href="#mb9db899760" y="260.899599"/>
     <use style="fill:#1f77b4;stroke:#1f77b4;" x="386.114357" xlink:href="#mb9db899760" y="190.589925"/>
     <use style="fill:#1f77b4;stroke:#1f77b4;" x="227.590821" xlink:href="#mb9db899760" y="253.442747"/>
     <use style="fill:#1f77b4;stroke:#1f77b4;" x="317.191927" xlink:href="#mb9db899760" y="269.026277"/>
     <use style="fill:#1f77b4;stroke:#1f77b4;" x="371.439865" xlink:href="#mb9db899760" y="201.812074"/>
     <use style="fill:#1f77b4;stroke:#1f77b4;" x="281.379862" xlink:href="#mb9db899760" y="272.046525"/>
     <use style="fill:#1f77b4;stroke:#1f77b4;" x="293.898249" xlink:href="#mb9db899760" y="265.034424"/>
     <use style="fill:#1f77b4;stroke:#1f77b4;" x="385.16221" xlink:href="#mb9db899760" y="192.7454"/>
     <use style="fill:#1f77b4;stroke:#1f77b4;" x="289.087168" xlink:href="#mb9db899760" y="273.573691"/>
     <use style="fill:#1f77b4;stroke:#1f77b4;" x="314.366735" xlink:href="#mb9db899760" y="265.798561"/>
     <use style="fill:#1f77b4;stroke:#1f77b4;" x="399.853521" xlink:href="#mb9db899760" y="165.727919"/>
     <use style="fill:#1f77b4;stroke:#1f77b4;" x="289.178058" xlink:href="#mb9db899760" y="269.96513"/>
     <use style="fill:#1f77b4;stroke:#1f77b4;" x="336.901617" xlink:href="#mb9db899760" y="264.64196"/>
     <use style="fill:#1f77b4;stroke:#1f77b4;" x="403.188905" xlink:href="#mb9db899760" y="151.800022"/>
     <use style="fill:#1f77b4;stroke:#1f77b4;" x="281.065644" xlink:href="#mb9db899760" y="264.901046"/>
     <use style="fill:#1f77b4;stroke:#1f77b4;" x="358.408362" xlink:href="#mb9db899760" y="242.116269"/>
     <use style="fill:#1f77b4;stroke:#1f77b4;" x="393.489601" xlink:href="#mb9db899760" y="178.737397"/>
     <use style="fill:#1f77b4;stroke:#1f77b4;" x="266.241779" xlink:href="#mb9db899760" y="260.824254"/>
     <use style="fill:#1f77b4;stroke:#1f77b4;" x="369.249407" xlink:href="#mb9db899760" y="242.945585"/>
     <use style="fill:#1f77b4;stroke:#1f77b4;" x="376.880164" xlink:href="#mb9db899760" y="190.108105"/>
     <use style="fill:#1f77b4;stroke:#1f77b4;" x="302.646642" xlink:href="#mb9db899760" y="277.437217"/>
     <use style="fill:#1f77b4;stroke:#1f77b4;" x="312.067678" xlink:href="#mb9db899760" y="279.525787"/>
     <use style="fill:#1f77b4;stroke:#1f77b4;" x="414.023954" xlink:href="#mb9db899760" y="103.953429"/>
     <use style="fill:#1f77b4;stroke:#1f77b4;" x="303.342067" xlink:href="#mb9db899760" y="275.769136"/>
     <use style="fill:#1f77b4;stroke:#1f77b4;" x="329.032902" xlink:href="#mb9db899760" y="282.273253"/>
     <use style="fill:#1f77b4;stroke:#1f77b4;" x="415.216774" xlink:href="#mb9db899760" y="84.364807"/>
     <use style="fill:#1f77b4;stroke:#1f77b4;" x="295.541352" xlink:href="#mb9db899760" y="270.945946"/>
     <use style="fill:#1f77b4;stroke:#1f77b4;" x="348.771455" xlink:href="#mb9db899760" y="269.732057"/>
     <use style="fill:#1f77b4;stroke:#1f77b4;" x="405.614707" xlink:href="#mb9db899760" y="112.591195"/>
     <use style="fill:#1f77b4;stroke:#1f77b4;" x="309.772174" xlink:href="#mb9db899760" y="279.352518"/>
     <use style="fill:#1f77b4;stroke:#1f77b4;" x="318.235306" xlink:href="#mb9db899760" y="281.66255"/>
     <use style="fill:#1f77b4;stroke:#1f77b4;" x="424.205658" xlink:href="#mb9db899760" y="39.71619"/>
     <use style="fill:#1f77b4;stroke:#1f77b4;" x="231.558513" xlink:href="#mb9db899760" y="254.541809"/>
     <use style="fill:#1f77b4;stroke:#1f77b4;" x="287.795473" xlink:href="#mb9db899760" y="260.541159"/>
     <use style="fill:#1f77b4;stroke:#1f77b4;" x="358.21612" xlink:href="#mb9db899760" y="224.335728"/>
     <use style="fill:#1f77b4;stroke:#1f77b4;" x="248.218144" xlink:href="#mb9db899760" y="262.780054"/>
     <use style="fill:#1f77b4;stroke:#1f77b4;" x="311.047281" xlink:href="#mb9db899760" y="262.528458"/>
     <use style="fill:#1f77b4;stroke:#1f77b4;" x="380.702476" xlink:href="#mb9db899760" y="196.683375"/>
     <use style="fill:#1f77b4;stroke:#1f77b4;" x="261.205959" xlink:href="#mb9db899760" y="265.680615"/>
     <use style="fill:#1f77b4;stroke:#1f77b4;" x="323.046005" xlink:href="#mb9db899760" y="267.1545"/>
     <use style="fill:#1f77b4;stroke:#1f77b4;" x="396.957556" xlink:href="#mb9db899760" y="190.421182"/>
     <use style="fill:#1f77b4;stroke:#1f77b4;" x="266.124041" xlink:href="#mb9db899760" y="267.043956"/>
     <use style="fill:#1f77b4;stroke:#1f77b4;" x="326.589986" xlink:href="#mb9db899760" y="269.036656"/>
     <use style="fill:#1f77b4;stroke:#1f77b4;" x="402.881183" xlink:href="#mb9db899760" y="179.875972"/>
     <use style="fill:#1f77b4;stroke:#1f77b4;" x="271.710532" xlink:href="#mb9db899760" y="273.249062"/>
     <use style="fill:#1f77b4;stroke:#1f77b4;" x="314.924181" xlink:href="#mb9db899760" y="251.480037"/>
     <use style="fill:#1f77b4;stroke:#1f77b4;" x="386.223459" xlink:href="#mb9db899760" y="183.72518"/>
     <use style="fill:#1f77b4;stroke:#1f77b4;" x="281.991501" xlink:href="#mb9db899760" y="273.963435"/>
     <use style="fill:#1f77b4;stroke:#1f77b4;" x="335.804311" xlink:href="#mb9db899760" y="253.976742"/>
     <use style="fill:#1f77b4;stroke:#1f77b4;" x="394.098309" xlink:href="#mb9db899760" y="174.827746"/>
     <use style="fill:#1f77b4;stroke:#1f77b4;" x="284.745277" xlink:href="#mb9db899760" y="272.274272"/>
     <use style="fill:#1f77b4;stroke:#1f77b4;" x="350.982408" xlink:href="#mb9db899760" y="258.084999"/>
     <use style="fill:#1f77b4;stroke:#1f77b4;" x="393.715764" xlink:href="#mb9db899760" y="174.443543"/>
     <use style="fill:#1f77b4;stroke:#1f77b4;" x="278.213373" xlink:href="#mb9db899760" y="269.948214"/>
     <use style="fill:#1f77b4;stroke:#1f77b4;" x="356.525703" xlink:href="#mb9db899760" y="249.458692"/>
     <use style="fill:#1f77b4;stroke:#1f77b4;" x="387.483012" xlink:href="#mb9db899760" y="177.892568"/>
     <use style="fill:#1f77b4;stroke:#1f77b4;" x="264.594969" xlink:href="#mb9db899760" y="267.230201"/>
     <use style="fill:#1f77b4;stroke:#1f77b4;" x="342.210777" xlink:href="#mb9db899760" y="255.622572"/>
     <use style="fill:#1f77b4;stroke:#1f77b4;" x="384.051265" xlink:href="#mb9db899760" y="177.09364"/>
     <use style="fill:#1f77b4;stroke:#1f77b4;" x="298.26775" xlink:href="#mb9db899760" y="278.067782"/>
     <use style="fill:#1f77b4;stroke:#1f77b4;" x="332.043585" xlink:href="#mb9db899760" y="264.854061"/>
     <use style="fill:#1f77b4;stroke:#1f77b4;" x="404.251895" xlink:href="#mb9db899760" y="125.494073"/>
     <use style="fill:#1f77b4;stroke:#1f77b4;" x="300.315016" xlink:href="#mb9db899760" y="277.026621"/>
     <use style="fill:#1f77b4;stroke:#1f77b4;" x="350.949876" xlink:href="#mb9db899760" y="257.9333"/>
     <use style="fill:#1f77b4;stroke:#1f77b4;" x="399.037578" xlink:href="#mb9db899760" y="135.629625"/>
     <use style="fill:#1f77b4;stroke:#1f77b4;" x="292.720431" xlink:href="#mb9db899760" y="273.52964"/>
     <use style="fill:#1f77b4;stroke:#1f77b4;" x="369.442525" xlink:href="#mb9db899760" y="195.380733"/>
     <use style="fill:#1f77b4;stroke:#1f77b4;" x="384.23356" xlink:href="#mb9db899760" y="202.767373"/>
     <use style="fill:#1f77b4;stroke:#1f77b4;" x="307.47929" xlink:href="#mb9db899760" y="279.235518"/>
     <use style="fill:#1f77b4;stroke:#1f77b4;" x="337.883093" xlink:href="#mb9db899760" y="285.5385"/>
     <use style="fill:#1f77b4;stroke:#1f77b4;" x="410.525485" xlink:href="#mb9db899760" y="115.101183"/>
     <use style="fill:#1f77b4;stroke:#1f77b4;" x="294.055869" xlink:href="#mb9db899760" y="277.262557"/>
     <use style="fill:#1f77b4;stroke:#1f77b4;" x="358.175275" xlink:href="#mb9db899760" y="236.045013"/>
     <use style="fill:#1f77b4;stroke:#1f77b4;" x="388.826612" xlink:href="#mb9db899760" y="170.114536"/>
     <use style="fill:#1f77b4;stroke:#1f77b4;" x="299.062167" xlink:href="#mb9db899760" y="277.80055"/>
     <use style="fill:#1f77b4;stroke:#1f77b4;" x="370.869298" xlink:href="#mb9db899760" y="227.179635"/>
     <use style="fill:#1f77b4;stroke:#1f77b4;" x="381.513664" xlink:href="#mb9db899760" y="182.318755"/>
     <use style="fill:#1f77b4;stroke:#1f77b4;" x="305.625219" xlink:href="#mb9db899760" y="280.469261"/>
     <use style="fill:#1f77b4;stroke:#1f77b4;" x="363.645542" xlink:href="#mb9db899760" y="235.340324"/>
     <use style="fill:#1f77b4;stroke:#1f77b4;" x="389.383441" xlink:href="#mb9db899760" y="157.604048"/>
    </g>
   </g>
   <g id="patch_3">
    <path d="M 57.71 296.44 
L 57.71 26.88 
" style="fill:none;stroke:#000000;stroke-linecap:square;stroke-linejoin:miter;stroke-width:0.8;"/>
   </g>
   <g id="patch_4">
    <path d="M 447.48 296.44 
L 447.48 26.88 
" style="fill:none;stroke:#000000;stroke-linecap:square;stroke-linejoin:miter;stroke-width:0.8;"/>
   </g>
   <g id="patch_5">
    <path d="M 57.71 296.44 
L 447.48 296.44 
" style="fill:none;stroke:#000000;stroke-linecap:square;stroke-linejoin:miter;stroke-width:0.8;"/>
   </g>
   <g id="patch_6">
    <path d="M 57.71 26.88 
L 447.48 26.88 
" style="fill:none;stroke:#000000;stroke-linecap:square;stroke-linejoin:miter;stroke-width:0.8;"/>
   </g>
   <g id="text_14">
    <!-- T=1200K -->
    <defs>
     <path d="M 10.59375 45.40625 
L 73.1875 45.40625 
L 73.1875 37.203125 
L 10.59375 37.203125 
z
M 10.59375 25.484375 
L 73.1875 25.484375 
L 73.1875 17.1875 
L 10.59375 17.1875 
z
" id="DejaVuSans-3d"/>
     <path d="M 9.8125 72.90625 
L 19.671875 72.90625 
L 19.671875 42.09375 
L 52.390625 72.90625 
L 65.09375 72.90625 
L 28.90625 38.921875 
L 67.671875 0 
L 54.6875 0 
L 19.671875 35.109375 
L 19.671875 0 
L 9.8125 0 
z
" id="DejaVuSans-4b"/>
    </defs>
    <g transform="translate(224.697813 20.88)scale(0.12 -0.12)">
     <use xlink:href="#DejaVuSans-54"/>
     <use x="61.083984" xlink:href="#DejaVuSans-3d"/>
     <use x="144.873047" xlink:href="#DejaVuSans-31"/>
     <use x="208.496094" xlink:href="#DejaVuSans-32"/>
     <use x="272.119141" xlink:href="#DejaVuSans-30"/>
     <use x="335.742188" xlink:href="#DejaVuSans-30"/>
     <use x="399.365234" xlink:href="#DejaVuSans-4b"/>
    </g>
   </g>
  </g>
 </g>
 <defs>
  <clipPath id="p8e05d7996a">
   <rect height="269.56" width="389.77" x="57.71" y="26.88"/>
  </clipPath>
 </defs>
</svg>
