8
Lattice="5.690301476175671 0.0 0.0 0.0 5.690301476175671 0.0 0.0 0.0 5.690301476175671" Properties=species:S:1:pos:R:3 pbc="T T T"
Na       0.00000000       0.00000000       0.00000000
Na       0.00000000       2.84515074       2.84515074
Na       2.84515074       0.00000000       2.84515074
Na       2.84515074       2.84515074       0.00000000
Cl       2.84515074       2.84515074       2.84515074
Cl       2.84515074       0.00000000       0.00000000
Cl       0.00000000       2.84515074       0.00000000
Cl       0.00000000       0.00000000       2.84515074
